<svg width="30" height="22" viewBox="0 0 30 22" fill="none" xmlns="http://www.w3.org/2000/svg">
<path d="M29.0156 11.9687C28.9418 12.0241 28.8577 12.0645 28.7683 12.0874C28.6788 12.1103 28.5857 12.1154 28.4943 12.1023C28.4029 12.0892 28.315 12.0583 28.2355 12.0113C28.1561 11.9642 28.0867 11.902 28.0312 11.8281C27.4437 11.0402 26.6798 10.4008 25.8006 9.96121C24.9215 9.52165 23.9516 9.29412 22.9688 9.29687C22.7823 9.29687 22.6034 9.22279 22.4716 9.09093C22.3397 8.95907 22.2656 8.78022 22.2656 8.59374C22.2656 8.40726 22.3397 8.22842 22.4716 8.09656C22.6034 7.9647 22.7823 7.89062 22.9688 7.89062C23.547 7.89138 24.1134 7.72759 24.602 7.4184C25.0906 7.10921 25.4812 6.66738 25.728 6.14451C25.9749 5.62164 26.0678 5.03933 25.9961 4.4656C25.9243 3.89186 25.6908 3.35039 25.3227 2.90443C24.9547 2.45847 24.4674 2.12643 23.9177 1.94711C23.368 1.76778 22.7786 1.74857 22.2184 1.89172C21.6582 2.03487 21.1503 2.33447 20.754 2.75552C20.3577 3.17656 20.0894 3.70168 19.9805 4.26952C19.9436 4.45385 19.8356 4.61623 19.6799 4.72151C19.5242 4.82679 19.3332 4.86649 19.1484 4.83202C19.058 4.81523 18.9717 4.78054 18.8948 4.72999C18.8179 4.67944 18.7519 4.61405 18.7006 4.53765C18.6493 4.46124 18.6138 4.37537 18.5961 4.28506C18.5784 4.19475 18.579 4.10182 18.5977 4.01171C18.8088 2.9266 19.416 1.95881 20.3012 1.2966C21.1864 0.63438 22.2862 0.325079 23.3868 0.428853C24.4874 0.532627 25.5101 1.04206 26.2558 1.85806C27.0016 2.67405 27.4173 3.73828 27.4219 4.84374C27.4242 5.5268 27.2676 6.20104 26.9646 6.81321C26.6615 7.42538 26.2203 7.95871 25.6758 8.37109C27.0609 8.89338 28.2683 9.79994 29.1562 10.9844C29.2681 11.1336 29.3162 11.3211 29.2898 11.5057C29.2634 11.6903 29.1648 11.8569 29.0156 11.9687ZM22.3828 20.0078C22.4603 20.1761 22.4694 20.368 22.4082 20.5429C22.347 20.7177 22.2202 20.862 22.0547 20.9453C21.9594 20.9906 21.8555 21.0146 21.75 21.0156C21.6171 21.0184 21.4863 20.9821 21.3739 20.9112C21.2614 20.8404 21.1722 20.7382 21.1172 20.6172C20.5574 19.4717 19.6872 18.5064 18.6057 17.8312C17.5243 17.156 16.2749 16.7981 15 16.7981C13.7251 16.7981 12.4757 17.156 11.3943 17.8312C10.3128 18.5064 9.44261 19.4717 8.88281 20.6172C8.80185 20.7849 8.65767 20.9136 8.48191 20.9751C8.30616 21.0366 8.11318 21.0259 7.94531 20.9453C7.77978 20.862 7.65304 20.7177 7.59183 20.5429C7.53062 20.368 7.53971 20.1761 7.61719 20.0078C8.52809 18.131 10.1208 16.6724 12.0703 15.9297C11.0939 15.2975 10.3482 14.3665 9.9445 13.2757C9.54078 12.1849 9.50072 10.9927 9.83031 9.87722C10.1599 8.76174 10.8414 7.78278 11.7732 7.08652C12.7049 6.39026 13.8369 6.01404 15 6.01404C16.1631 6.01404 17.2951 6.39026 18.2268 7.08652C19.1586 7.78278 19.8401 8.76174 20.1697 9.87722C20.4993 10.9927 20.4592 12.1849 20.0555 13.2757C19.6518 14.3665 18.9061 15.2975 17.9297 15.9297C19.8792 16.6724 21.4719 18.131 22.3828 20.0078ZM15 15.3906C15.788 15.3906 16.5584 15.1569 17.2136 14.7191C17.8688 14.2813 18.3795 13.659 18.6811 12.931C18.9827 12.2029 19.0616 11.4018 18.9078 10.6289C18.7541 9.85604 18.3746 9.14609 17.8174 8.58887C17.2602 8.03164 16.5502 7.65216 15.7773 7.49843C15.0044 7.34469 14.2033 7.42359 13.4752 7.72516C12.7472 8.02673 12.1249 8.53742 11.6871 9.19264C11.2493 9.84787 11.0156 10.6182 11.0156 11.4062C11.0187 12.462 11.4395 13.4737 12.186 14.2202C12.9326 14.9668 13.9442 15.3875 15 15.3906ZM7.03125 7.89062C6.45304 7.89138 5.88656 7.72759 5.39796 7.4184C4.90937 7.10921 4.51884 6.66738 4.272 6.14451C4.02515 5.62164 3.93218 5.03933 4.00394 4.4656C4.0757 3.89186 4.30923 3.35039 4.67726 2.90443C5.04528 2.45847 5.53261 2.12643 6.0823 1.94711C6.632 1.76778 7.22137 1.74857 7.78158 1.89172C8.34178 2.03487 8.8497 2.33447 9.24598 2.75552C9.64226 3.17656 9.91056 3.70168 10.0195 4.26952C10.0564 4.45385 10.1644 4.61623 10.3201 4.72151C10.4758 4.82679 10.6668 4.86649 10.8516 4.83202C10.942 4.81523 11.0283 4.78054 11.1052 4.72999C11.1821 4.67944 11.2481 4.61405 11.2994 4.53765C11.3507 4.46124 11.3862 4.37537 11.4039 4.28506C11.4216 4.19475 11.421 4.10182 11.4023 4.01171C11.1912 2.9266 10.584 1.95881 9.69879 1.2966C8.81361 0.63438 7.71377 0.325079 6.61318 0.428853C5.51259 0.532627 4.48995 1.04206 3.74415 1.85806C2.99836 2.67405 2.58274 3.73828 2.57812 4.84374C2.57585 5.5268 2.73241 6.20104 3.03544 6.81321C3.33847 7.42538 3.77968 7.95871 4.32422 8.37109C2.9391 8.89338 1.73171 9.79994 0.84375 10.9844C0.788349 11.0582 0.748039 11.1423 0.725123 11.2317C0.702207 11.3212 0.697134 11.4143 0.710192 11.5057C0.72325 11.5971 0.754184 11.685 0.801229 11.7645C0.848273 11.8439 0.910506 11.9133 0.984375 11.9687C1.05824 12.0241 1.1423 12.0645 1.23175 12.0874C1.32119 12.1103 1.41428 12.1154 1.50569 12.1023C1.59709 12.0892 1.68504 12.0583 1.76449 12.0113C1.84394 11.9642 1.91335 11.902 1.96875 11.8281C2.55629 11.0402 3.32023 10.4008 4.19936 9.96121C5.07849 9.52165 6.04836 9.29412 7.03125 9.29687C7.21773 9.29687 7.39657 9.22279 7.52843 9.09093C7.6603 8.95907 7.73438 8.78022 7.73438 8.59374C7.73438 8.40726 7.6603 8.22842 7.52843 8.09656C7.39657 7.9647 7.21773 7.89062 7.03125 7.89062Z" fill="#78909C"/>
</svg>
